{
"instructions_readme": "1) Open Chrome, 2) go to chrome://tracing, 3) click Load, 4) navigate to this file.",
"traceEvents":[
{ "cat":"", "pid":1, "tid":0, "ts":0, "ph":"M", "name":"process_name", "args": { "name":"tundra" } }
,{ "pid":1, "tid":0, "ts":276605566598, "dur":358, "ph":"X", "name": "DriverCheckDagSignatures",  "args": { "durationMS":0, "detail":"" }}
,{ "pid":1, "tid":0, "ts":276605566956, "dur":313, "ph":"X", "name": "DriverInitData",  "args": { "durationMS":0, "detail":"" }}
,{ "pid":1, "tid":0, "ts":276605567391, "dur":12, "ph":"X", "name": "Tundra",  "args": { "durationMS":0, "detail":"PrepareNodes" }}
,{ "pid":1, "tid":0, "ts":276605567408, "dur":3, "ph":"X", "name": "Tundra",  "args": { "durationMS":0, "detail":"RemoveStaleOutputs" }}
,{ "pid":1, "tid":0, "ts":276605567412, "dur":425, "ph":"X", "name": "Tundra",  "args": { "durationMS":0, "detail":"BuildQueueInit" }}
,{ "pid":1, "tid":0, "ts":276668421817, "dur":16340, "ph":"X", "name": "JoinBuildThread",  "args": { "durationMS":16, "detail":"" }}
,{ "pid":1, "tid":0, "ts":276668438171, "dur":2, "ph":"X", "name": "JoinBuildThread",  "args": { "durationMS":0, "detail":"" }}
,{ "pid":1, "tid":0, "ts":276668438179, "dur":2, "ph":"X", "name": "JoinBuildThread",  "args": { "durationMS":0, "detail":"" }}
,{ "pid":1, "tid":0, "ts":276668438186, "dur":2, "ph":"X", "name": "JoinBuildThread",  "args": { "durationMS":0, "detail":"" }}
,{ "pid":1, "tid":0, "ts":276668438192, "dur":1, "ph":"X", "name": "JoinBuildThread",  "args": { "durationMS":0, "detail":"" }}
,{ "pid":1, "tid":0, "ts":276668438199, "dur":1, "ph":"X", "name": "JoinBuildThread",  "args": { "durationMS":0, "detail":"" }}
,{ "pid":1, "tid":0, "ts":276668438205, "dur":1, "ph":"X", "name": "JoinBuildThread",  "args": { "durationMS":0, "detail":"" }}
,{ "pid":1, "tid":0, "ts":276668438212, "dur":1, "ph":"X", "name": "JoinBuildThread",  "args": { "durationMS":0, "detail":"" }}
,{ "pid":1, "tid":0, "ts":276668438219, "dur":1, "ph":"X", "name": "JoinBuildThread",  "args": { "durationMS":0, "detail":"" }}
,{ "pid":1, "tid":0, "ts":276668438225, "dur":1, "ph":"X", "name": "JoinBuildThread",  "args": { "durationMS":0, "detail":"" }}
,{ "pid":1, "tid":0, "ts":276668438231, "dur":46, "ph":"X", "name": "JoinBuildThread",  "args": { "durationMS":0, "detail":"" }}
,{ "pid":1, "tid":0, "ts":276668438286, "dur":2, "ph":"X", "name": "JoinBuildThread",  "args": { "durationMS":0, "detail":"" }}
,{ "pid":1, "tid":0, "ts":276668438298, "dur":2, "ph":"X", "name": "JoinBuildThread",  "args": { "durationMS":0, "detail":"" }}
,{ "pid":1, "tid":0, "ts":276668438308, "dur":2, "ph":"X", "name": "JoinBuildThread",  "args": { "durationMS":0, "detail":"" }}
,{ "pid":1, "tid":0, "ts":276668438320, "dur":1, "ph":"X", "name": "JoinBuildThread",  "args": { "durationMS":0, "detail":"" }}
,{ "pid":1, "tid":0, "ts":276668438327, "dur":1, "ph":"X", "name": "JoinBuildThread",  "args": { "durationMS":0, "detail":"" }}
,{ "pid":1, "tid":0, "ts":276668438335, "dur":0, "ph":"X", "name": "SharedResourceDestroy",  "args": { "durationMS":0, "detail":"" }}
,{ "pid":1, "tid":0, "ts":276668438336, "dur":1252, "ph":"X", "name": "Tundra",  "args": { "durationMS":1, "detail":"Write AllBuiltNodes" }}
,{ "pid":1, "tid":1, "ts":276605567772, "dur":62854046, "ph":"X", "name": "WaitingForWork", "cname":"thread_state_sleeping",  "args": { "durationMS":62854, "detail":"" }}
,{ "pid":1, "tid":1, "ts":276668421820, "dur":16040, "ph":"X", "name": "Exiting",  "args": { "durationMS":16, "detail":"BuildLoop" }}
,{ "pid":1, "tid":2, "ts":276605568037, "dur":62853795, "ph":"X", "name": "WaitingForWork", "cname":"thread_state_sleeping",  "args": { "durationMS":62854, "detail":"" }}
,{ "pid":1, "tid":2, "ts":276668421834, "dur":16006, "ph":"X", "name": "Exiting",  "args": { "durationMS":16, "detail":"BuildLoop" }}
,{ "pid":1, "tid":3, "ts":276605567793, "dur":62854029, "ph":"X", "name": "WaitingForWork", "cname":"thread_state_sleeping",  "args": { "durationMS":62854, "detail":"" }}
,{ "pid":1, "tid":3, "ts":276668421822, "dur":16023, "ph":"X", "name": "Exiting",  "args": { "durationMS":16, "detail":"BuildLoop" }}
,{ "pid":1, "tid":4, "ts":276605567835, "dur":7, "ph":"X", "name": "WaitingForWork", "cname":"thread_state_sleeping",  "args": { "durationMS":0, "detail":"" }}
,{ "pid":1, "tid":4, "ts":276605567846, "dur":10, "ph":"X", "name": "CheckInputSignature",  "args": { "durationMS":0, "detail":"WriteResponseFile artifacts/rsp/11602570720570974250.rsp" }}
,{ "pid":1, "tid":4, "ts":276605568132, "dur":305, "ph":"X", "name": "WriteResponseFile",  "args": { "durationMS":0, "detail":"artifacts/rsp/11602570720570974250.rsp" }}
,{ "pid":1, "tid":4, "ts":276605568470, "dur":7772, "ph":"X", "name": "CheckInputSignature",  "args": { "durationMS":8, "detail":"Il2Cpp C:/Users/abbcc/MyFirstGame/Library/Il2cppBuildCache/WebGL/Native/build.bc" }}
,{ "pid":1, "tid":4, "ts":276605577009, "dur":62844373, "ph":"X", "name": "Il2Cpp",  "args": { "durationMS":62844, "detail":"C:/Users/abbcc/MyFirstGame/Library/Il2cppBuildCache/WebGL/Native/build.bc" }}
,{ "pid":1, "tid":4, "ts":276668421430, "dur":3, "ph":"X", "name": "CheckInputSignature",  "args": { "durationMS":0, "detail":"all_tundra_nodes" }}
,{ "pid":1, "tid":4, "ts":276668421781, "dur":42, "ph":"X", "name": "WaitingForWork", "cname":"thread_state_sleeping",  "args": { "durationMS":0, "detail":"" }}
,{ "pid":1, "tid":4, "ts":276668421824, "dur":16020, "ph":"X", "name": "Exiting",  "args": { "durationMS":16, "detail":"BuildLoop" }}
,{ "pid":1, "tid":5, "ts":276605567859, "dur":62853961, "ph":"X", "name": "WaitingForWork", "cname":"thread_state_sleeping",  "args": { "durationMS":62854, "detail":"" }}
,{ "pid":1, "tid":5, "ts":276668421820, "dur":16027, "ph":"X", "name": "Exiting",  "args": { "durationMS":16, "detail":"BuildLoop" }}
,{ "pid":1, "tid":6, "ts":276605567880, "dur":62853961, "ph":"X", "name": "WaitingForWork", "cname":"thread_state_sleeping",  "args": { "durationMS":62854, "detail":"" }}
,{ "pid":1, "tid":6, "ts":276668421841, "dur":15997, "ph":"X", "name": "Exiting",  "args": { "durationMS":16, "detail":"BuildLoop" }}
,{ "pid":1, "tid":7, "ts":276605567902, "dur":62853915, "ph":"X", "name": "WaitingForWork", "cname":"thread_state_sleeping",  "args": { "durationMS":62854, "detail":"" }}
,{ "pid":1, "tid":7, "ts":276668421817, "dur":16042, "ph":"X", "name": "Exiting",  "args": { "durationMS":16, "detail":"BuildLoop" }}
,{ "pid":1, "tid":8, "ts":276605567924, "dur":62853905, "ph":"X", "name": "WaitingForWork", "cname":"thread_state_sleeping",  "args": { "durationMS":62854, "detail":"" }}
,{ "pid":1, "tid":8, "ts":276668421830, "dur":16029, "ph":"X", "name": "Exiting",  "args": { "durationMS":16, "detail":"BuildLoop" }}
,{ "pid":1, "tid":9, "ts":276605567944, "dur":62853887, "ph":"X", "name": "WaitingForWork", "cname":"thread_state_sleeping",  "args": { "durationMS":62854, "detail":"" }}
,{ "pid":1, "tid":9, "ts":276668421833, "dur":16010, "ph":"X", "name": "Exiting",  "args": { "durationMS":16, "detail":"BuildLoop" }}
,{ "pid":1, "tid":10, "ts":276605567966, "dur":62853864, "ph":"X", "name": "WaitingForWork", "cname":"thread_state_sleeping",  "args": { "durationMS":62854, "detail":"" }}
,{ "pid":1, "tid":10, "ts":276668421832, "dur":16009, "ph":"X", "name": "Exiting",  "args": { "durationMS":16, "detail":"BuildLoop" }}
,{ "pid":1, "tid":11, "ts":276605567981, "dur":62853856, "ph":"X", "name": "WaitingForWork", "cname":"thread_state_sleeping",  "args": { "durationMS":62854, "detail":"" }}
,{ "pid":1, "tid":11, "ts":276668421839, "dur":15999, "ph":"X", "name": "Exiting",  "args": { "durationMS":16, "detail":"BuildLoop" }}
,{ "pid":1, "tid":12, "ts":276605568009, "dur":62853826, "ph":"X", "name": "WaitingForWork", "cname":"thread_state_sleeping",  "args": { "durationMS":62854, "detail":"" }}
,{ "pid":1, "tid":12, "ts":276668421835, "dur":16004, "ph":"X", "name": "Exiting",  "args": { "durationMS":16, "detail":"BuildLoop" }}
,{ "pid":1, "tid":13, "ts":276605568031, "dur":62853803, "ph":"X", "name": "WaitingForWork", "cname":"thread_state_sleeping",  "args": { "durationMS":62854, "detail":"" }}
,{ "pid":1, "tid":13, "ts":276668421834, "dur":16006, "ph":"X", "name": "Exiting",  "args": { "durationMS":16, "detail":"BuildLoop" }}
,{ "pid":1, "tid":14, "ts":276605567816, "dur":62854004, "ph":"X", "name": "WaitingForWork", "cname":"thread_state_sleeping",  "args": { "durationMS":62854, "detail":"" }}
,{ "pid":1, "tid":14, "ts":276668421821, "dur":16031, "ph":"X", "name": "Exiting",  "args": { "durationMS":16, "detail":"BuildLoop" }}
,{ "pid":1, "tid":15, "ts":276605568052, "dur":62853775, "ph":"X", "name": "WaitingForWork", "cname":"thread_state_sleeping",  "args": { "durationMS":62854, "detail":"" }}
,{ "pid":1, "tid":15, "ts":276668421829, "dur":16021, "ph":"X", "name": "Exiting",  "args": { "durationMS":16, "detail":"BuildLoop" }}
,{ "pid":1, "tid":16, "ts":276605568070, "dur":62853753, "ph":"X", "name": "WaitingForWork", "cname":"thread_state_sleeping",  "args": { "durationMS":62854, "detail":"" }}
,{ "pid":1, "tid":16, "ts":276668421831, "dur":16011, "ph":"X", "name": "Exiting",  "args": { "durationMS":16, "detail":"BuildLoop" }}

]
}
