[api-updater (non-obsolete-error-filter)] 28/4/2564 17:10:29 : Starting C:/Program Files/Unity/Hub/Editor/2020.3.5f1/Editor/Data/Tools/ScriptUpdater/APIUpdater.NonObsoleteApiUpdaterDetector.exe
[api-updater (non-obsolete-error-filter)] 
----------------------------------
jit/startup time      : 289.2635ms
moved types parse time: 32ms
candidates parse time : 0ms
C# parse time         : 158ms
candidates check time : 17ms
console write time    : 0ms

[api-updater (non-obsolete-error-filter)] 7/5/2564 2:46:47 : Starting C:/Program Files/Unity/Hub/Editor/2020.3.5f1/Editor/Data/Tools/ScriptUpdater/APIUpdater.NonObsoleteApiUpdaterDetector.exe
[api-updater (non-obsolete-error-filter)] 
----------------------------------
jit/startup time      : 284.2579ms
moved types parse time: 37ms
candidates parse time : 0ms
C# parse time         : 112ms
candidates check time : 17ms
console write time    : 0ms

[api-updater (non-obsolete-error-filter)] 7/5/2564 2:48:09 : Starting C:/Program Files/Unity/Hub/Editor/2020.3.5f1/Editor/Data/Tools/ScriptUpdater/APIUpdater.NonObsoleteApiUpdaterDetector.exe
[api-updater (non-obsolete-error-filter)] 
----------------------------------
jit/startup time      : 39.036ms
moved types parse time: 33ms
candidates parse time : 1ms
C# parse time         : 127ms
candidates check time : 18ms
console write time    : 0ms

[api-updater (non-obsolete-error-filter)] 7/5/2564 2:48:31 : Starting C:/Program Files/Unity/Hub/Editor/2020.3.5f1/Editor/Data/Tools/ScriptUpdater/APIUpdater.NonObsoleteApiUpdaterDetector.exe
[api-updater (non-obsolete-error-filter)] 
----------------------------------
jit/startup time      : 44.0406ms
moved types parse time: 41ms
candidates parse time : 0ms
C# parse time         : 136ms
candidates check time : 17ms
console write time    : 0ms

[api-updater (non-obsolete-error-filter)] 7/5/2564 2:49:11 : Starting C:/Program Files/Unity/Hub/Editor/2020.3.5f1/Editor/Data/Tools/ScriptUpdater/APIUpdater.NonObsoleteApiUpdaterDetector.exe
[api-updater (non-obsolete-error-filter)] 
----------------------------------
jit/startup time      : 38.9742ms
moved types parse time: 38ms
candidates parse time : 0ms
C# parse time         : 120ms
candidates check time : 17ms
console write time    : 0ms

[api-updater (non-obsolete-error-filter)] 7/5/2564 2:55:47 : Starting C:/Program Files/Unity/Hub/Editor/2020.3.5f1/Editor/Data/Tools/ScriptUpdater/APIUpdater.NonObsoleteApiUpdaterDetector.exe
[api-updater (non-obsolete-error-filter)] 
----------------------------------
jit/startup time      : 44.0535ms
moved types parse time: 40ms
candidates parse time : 0ms
C# parse time         : 127ms
candidates check time : 35ms
console write time    : 0ms

[api-updater (non-obsolete-error-filter)] 7/5/2564 2:55:48 : Starting C:/Program Files/Unity/Hub/Editor/2020.3.5f1/Editor/Data/Tools/ScriptUpdater/APIUpdater.NonObsoleteApiUpdaterDetector.exe
[api-updater (non-obsolete-error-filter)] 
----------------------------------
jit/startup time      : 37.2349ms
moved types parse time: 36ms
candidates parse time : 0ms
C# parse time         : 133ms
candidates check time : 30ms
console write time    : 0ms

[api-updater (non-obsolete-error-filter)] 7/5/2564 2:55:52 : Starting C:/Program Files/Unity/Hub/Editor/2020.3.5f1/Editor/Data/Tools/ScriptUpdater/APIUpdater.NonObsoleteApiUpdaterDetector.exe
[api-updater (non-obsolete-error-filter)] 
----------------------------------
jit/startup time      : 38.0377ms
moved types parse time: 32ms
candidates parse time : 0ms
C# parse time         : 115ms
candidates check time : 27ms
console write time    : 0ms

[api-updater (non-obsolete-error-filter)] 7/5/2564 2:59:31 : Starting C:/Program Files/Unity/Hub/Editor/2020.3.5f1/Editor/Data/Tools/ScriptUpdater/APIUpdater.NonObsoleteApiUpdaterDetector.exe
[api-updater (non-obsolete-error-filter)] 
----------------------------------
jit/startup time      : 38.0352ms
moved types parse time: 37ms
candidates parse time : 0ms
C# parse time         : 128ms
candidates check time : 31ms
console write time    : 0ms

[api-updater (non-obsolete-error-filter)] 7/5/2564 2:59:35 : Starting C:/Program Files/Unity/Hub/Editor/2020.3.5f1/Editor/Data/Tools/ScriptUpdater/APIUpdater.NonObsoleteApiUpdaterDetector.exe
[api-updater (non-obsolete-error-filter)] 
----------------------------------
jit/startup time      : 36.0334ms
moved types parse time: 32ms
candidates parse time : 0ms
C# parse time         : 115ms
candidates check time : 30ms
console write time    : 0ms

[api-updater (non-obsolete-error-filter)] 10/5/2564 22:56:15 : Starting C:/Program Files/Unity/Hub/Editor/2020.3.5f1/Editor/Data/Tools/ScriptUpdater/APIUpdater.NonObsoleteApiUpdaterDetector.exe
[api-updater (non-obsolete-error-filter)] 
----------------------------------
jit/startup time      : 464.4221ms
moved types parse time: 36ms
candidates parse time : 0ms
C# parse time         : 154ms
candidates check time : 28ms
console write time    : 0ms

[api-updater (non-obsolete-error-filter)] 10/5/2564 22:56:42 : Starting C:/Program Files/Unity/Hub/Editor/2020.3.5f1/Editor/Data/Tools/ScriptUpdater/APIUpdater.NonObsoleteApiUpdaterDetector.exe
[api-updater (non-obsolete-error-filter)] 
----------------------------------
jit/startup time      : 38.0345ms
moved types parse time: 32ms
candidates parse time : 0ms
C# parse time         : 120ms
candidates check time : 34ms
console write time    : 0ms

[api-updater (non-obsolete-error-filter)] 10/5/2564 22:56:56 : Starting C:/Program Files/Unity/Hub/Editor/2020.3.5f1/Editor/Data/Tools/ScriptUpdater/APIUpdater.NonObsoleteApiUpdaterDetector.exe
[api-updater (non-obsolete-error-filter)] 
----------------------------------
jit/startup time      : 38.0343ms
moved types parse time: 32ms
candidates parse time : 0ms
C# parse time         : 118ms
candidates check time : 28ms
console write time    : 0ms

[api-updater (non-obsolete-error-filter)] 10/5/2564 22:57:04 : Starting C:/Program Files/Unity/Hub/Editor/2020.3.5f1/Editor/Data/Tools/ScriptUpdater/APIUpdater.NonObsoleteApiUpdaterDetector.exe
[api-updater (non-obsolete-error-filter)] 
----------------------------------
jit/startup time      : 39.0351ms
moved types parse time: 32ms
candidates parse time : 0ms
C# parse time         : 117ms
candidates check time : 27ms
console write time    : 0ms

[api-updater (non-obsolete-error-filter)] 10/5/2564 23:01:07 : Starting C:/Program Files/Unity/Hub/Editor/2020.3.5f1/Editor/Data/Tools/ScriptUpdater/APIUpdater.NonObsoleteApiUpdaterDetector.exe
[api-updater (non-obsolete-error-filter)] 
----------------------------------
jit/startup time      : 44.0302ms
moved types parse time: 33ms
candidates parse time : 0ms
C# parse time         : 134ms
candidates check time : 32ms
console write time    : 0ms

[api-updater (non-obsolete-error-filter)] 10/5/2564 23:02:56 : Starting C:/Program Files/Unity/Hub/Editor/2020.3.5f1/Editor/Data/Tools/ScriptUpdater/APIUpdater.NonObsoleteApiUpdaterDetector.exe
[api-updater (non-obsolete-error-filter)] 
----------------------------------
jit/startup time      : 38.0341ms
moved types parse time: 36ms
candidates parse time : 0ms
C# parse time         : 121ms
candidates check time : 28ms
console write time    : 0ms

[api-updater (non-obsolete-error-filter)] 12/5/2564 21:02:14 : Starting C:/Program Files/Unity/Hub/Editor/2020.3.5f1/Editor/Data/Tools/ScriptUpdater/APIUpdater.NonObsoleteApiUpdaterDetector.exe
[api-updater (non-obsolete-error-filter)] 
----------------------------------
jit/startup time      : 429.8929ms
moved types parse time: 39ms
candidates parse time : 0ms
C# parse time         : 133ms
candidates check time : 29ms
console write time    : 0ms

[api-updater (non-obsolete-error-filter)] 12/5/2564 22:19:23 : Starting C:/Program Files/Unity/Hub/Editor/2020.3.5f1/Editor/Data/Tools/ScriptUpdater/APIUpdater.NonObsoleteApiUpdaterDetector.exe
[api-updater (non-obsolete-error-filter)] 
----------------------------------
jit/startup time      : 40.0358ms
moved types parse time: 32ms
candidates parse time : 0ms
C# parse time         : 124ms
candidates check time : 28ms
console write time    : 0ms

